<?xml version="1.0" standalone="no"?>
<!DOCTYPE svg PUBLIC "-//W3C//DTD SVG 1.1//EN" "http://www.w3.org/Graphics/SVG/1.1/DTD/svg11.dtd">
<svg width="100%" height="100%" viewBox="0 0 612 612" version="1.1" xmlns="http://www.w3.org/2000/svg" xmlns:xlink="http://www.w3.org/1999/xlink" xml:space="preserve" style="fill-rule:evenodd;clip-rule:evenodd;stroke-linejoin:round;stroke-miterlimit:1.41421;">
    <path id="plus" d="M612,286.893L325.116,286.893L325.116,0.296L286.903,0.296L286.903,286.893L0,286.893L0,325.107L286.903,325.107L286.903,611.704L325.116,611.704L325.116,325.107L612,325.107L612,286.893Z" style="fill:rgb(231,86,72);fill-rule:nonzero;"/>
</svg>
