<?xml version="1.0" standalone="no"?>
<!DOCTYPE svg PUBLIC "-//W3C//DTD SVG 1.1//EN" "http://www.w3.org/Graphics/SVG/1.1/DTD/svg11.dtd">
<svg width="100%" height="100%" viewBox="0 0 329 329" version="1.1" xmlns="http://www.w3.org/2000/svg" xmlns:xlink="http://www.w3.org/1999/xlink" xml:space="preserve" style="fill-rule:evenodd;clip-rule:evenodd;stroke-linejoin:round;stroke-miterlimit:1.41421;">
    <path d="M309.644,192.877C311.376,183.845 312.292,174.525 312.292,164.989C312.292,83.636 246.338,17.687 164.988,17.687C155.451,17.687 146.13,18.604 137.097,20.336C104.577,-8.012 55.203,-6.727 24.237,24.238C-6.73,55.202 -8.016,104.579 20.335,137.101C18.604,146.132 17.687,155.453 17.687,164.989C17.687,246.343 83.64,312.292 164.989,312.292C174.527,312.292 183.849,311.375 192.883,309.643C225.401,337.991 274.776,336.706 305.742,305.741C336.705,274.776 337.993,225.399 309.644,192.877ZM167.795,255.715C124.168,255.715 87.813,236.215 87.813,212.417C87.813,201.842 93.759,192.254 107.308,192.254C128.134,192.254 130.119,222 165.819,222C183.001,222 193.91,214.398 193.91,204.485C193.91,192.254 183.334,190.272 166.148,185.976L137.724,179.037C109.625,172.094 87.813,160.527 87.813,128.135C87.813,88.803 126.811,74.262 160.194,74.262C196.885,74.262 233.902,88.803 233.902,110.946C233.902,122.182 226.294,132.104 213.739,132.104C194.898,132.104 194.232,109.958 163.832,109.958C146.977,109.958 136.07,114.584 136.07,124.832C136.07,136.068 146.977,138.709 161.854,142.017L182.01,146.646C209.438,152.921 242.166,164.491 242.166,198.21C242.166,237.535 204.15,255.715 167.795,255.715Z" style="fill:white;fill-rule:nonzero;"/>
</svg>
